{
    "$schema": "http://json-schema.org/draft-04/schema#",
    "title": "PARAMS: cryolo.autopick",
    "description": "Automated particle picking",
    "type": "object",
    "properties": {
        "input_file": {
            "description": "Input micrographs file:",
            "type": "string"
        },
        "model_path": {
            "description": "CrYOLO model:",
            "type": "string"
        },
        "box_size": {
            "description": "Box size:",
            "type": "integer"
        },
        "gpus": {
            "description": "Which GPUs to use:",
            "type": "string"
        },
        "confidence_threshold": {
            "description": "Confidence threshold",
            "type": "number"
        },
        "use_JANNI_denoise": {
            "description": "Use JANNI denoising?",
            "type": "boolean"
        },
        "JANNI_model_path": {
            "description": "Path to JANNI noise model:",
            "type": "string"
        },
        "do_queue": {
            "description": "Submit to queue?",
            "type": "boolean"
        },
        "queuename": {
            "description": "Queue name:",
            "type": "string"
        },
        "qsub": {
            "description": "Queue submit command:",
            "type": "string"
        },
        "qsubscript": {
            "description": "Standard submission script:",
            "type": "string"
        },
        "min_dedicated": {
            "description": "Minimum dedicated cores per node:",
            "type": "integer"
        }
    }
}