{
    "$schema": "http://json-schema.org/draft-04/schema#",
    "title": "PARAMS: icebreaker.micrograph_analysis.particles",
    "description": "Assign ice thickness values to particles",
    "type": "object",
    "properties": {
        "in_mics": {
            "description": "Input micrographs star file:",
            "type": "string"
        },
        "in_parts": {
            "description": "Input particles star file:",
            "type": "string"
        },
        "nr_threads": {
            "description": "Number of threads:",
            "type": "integer"
        },
        "do_queue": {
            "description": "Submit to queue?",
            "type": "boolean"
        },
        "queuename": {
            "description": "Queue name:",
            "type": "string"
        },
        "qsub": {
            "description": "Queue submit command:",
            "type": "string"
        },
        "qsubscript": {
            "description": "Standard submission script:",
            "type": "string"
        },
        "min_dedicated": {
            "description": "Minimum dedicated cores per node:",
            "type": "integer"
        }
    }
}