{
    "$schema": "http://json-schema.org/draft-04/schema#",
    "title": "PARAMS: pipeliner.import.external_workflow",
    "description": "Import results from outside the pipeliner",
    "type": "object",
    "properties": {
        "external_import_data": {
            "description": "External import json data file:",
            "type": "string"
        }
    }
}