{
    "$schema": "http://json-schema.org/draft-04/schema#",
    "title": "PARAMS: relion.select.removeduplicates",
    "description": "Remove duplicate particles",
    "type": "object",
    "properties": {
        "fn_data": {
            "description": "OR select from particles.star:",
            "type": "string"
        },
        "image_angpix": {
            "description": "Pixel size before extraction (A)",
            "type": "number"
        },
        "duplicate_threshold": {
            "description": "Minimum inter-particle distance (A)",
            "type": "number"
        },
        "do_queue": {
            "description": "Submit to queue?",
            "type": "boolean"
        },
        "queuename": {
            "description": "Queue name:",
            "type": "string"
        },
        "qsub": {
            "description": "Queue submit command:",
            "type": "string"
        },
        "qsubscript": {
            "description": "Standard submission script:",
            "type": "string"
        },
        "min_dedicated": {
            "description": "Minimum dedicated cores per node:",
            "type": "integer"
        }
    }
}