{
    "$schema": "http://json-schema.org/draft-04/schema#",
    "title": "relion.select.onvalue",
    "description": "Select images based on min/max values of a STAR file metadata value",
    "type": "object",
    "properties": {
        "run parameters": {
            "description": "Complete parameters used for running the job",
            "$ref": "parameters/params_relion_select_onvalue.json"
        },
        "results": {
            "description": "Data on the results of the job",
            "$ref": "results/results_relion_select_onvalue.json"
        }
    }
}