{
    "$schema": "http://json-schema.org/draft-04/schema#",
    "title": "relion.refine3d.helical",
    "description": "Automatic refinement of a 3D volume from 2D helical segments",
    "type": "object",
    "properties": {
        "run parameters": {
            "description": "Complete parameters used for running the job",
            "$ref": "parameters/params_relion_refine3d_helical.json"
        },
        "results": {
            "description": "Data on the results of the job",
            "$ref": "results/results_relion_refine3d_helical.json"
        }
    }
}