{
    "$schema": "http://json-schema.org/draft-04/schema#",
    "title": "relion.class3d.helical.multiref",
    "description": "Heterogeneous classification of overlapping helical segments in 3D, using multiple references",
    "type": "object",
    "properties": {
        "run parameters": {
            "description": "Complete parameters used for running the job",
            "$ref": "parameters/params_relion_class3d_helical_multiref.json"
        },
        "results": {
            "description": "Data on the results of the job",
            "$ref": "results/results_relion_class3d_helical_multiref.json"
        }
    }
}