{
    "$schema": "http://json-schema.org/draft-04/schema#",
    "title": "RESULTS: relion.autopick.topaz.pick.helical",
    "description": "Reference-free autopicking using Topaz",
    "type": "object",
    "properties": null
}