{
    "$schema": "http://json-schema.org/draft-04/schema#",
    "title": "RESULTS: relion.import.coordinates",
    "description": "Import coordinate files in .box or .star format",
    "type": "object",
    "properties": null
}