{
    "$schema": "http://json-schema.org/draft-04/schema#",
    "title": "RESULTS: relion.autopick.topaz.train",
    "description": "Training for reference-free autopicking using Topaz",
    "type": "object",
    "properties": null
}