{
    "$schema": "http://json-schema.org/draft-04/schema#",
    "title": "RESULTS: relion.external",
    "description": "Run programs through RELION's external job function",
    "type": "object",
    "properties": null
}